…
## Arkusze kalkulacyjne

[@R-readxl]


```r
library(readxl)
meteo_z_xl = read_excel("pliki/dane_meteo.xlsx")
meteo_z_xl
#> # A tibble: 730 x 9
#>    kod_stacji nazwa_stacji   rok miesiac dzien  tavg precip humidity
#>         <dbl> <chr>        <dbl>   <dbl> <dbl> <dbl>  <dbl>    <dbl>
#>  1  352160330 POZNAŃ        2017       1     1   1.4    0       78  
#>  2  352160330 POZNAŃ        2017       1     2   0.1    0       84  
#>  3  352160330 POZNAŃ        2017       1     3   0.5    4.8     91.1
#>  4  352160330 POZNAŃ        2017       1     4   1.5    2.3     84.9
#>  5  352160330 POZNAŃ        2017       1     5  -3.5    0       68.3
#>  6  352160330 POZNAŃ        2017       1     6  -8.4    0       78.6
#>  7  352160330 POZNAŃ        2017       1     7  -7.9    2.1     82.5
#>  8  352160330 POZNAŃ        2017       1     8  -7.7    0       78.5
#>  9  352160330 POZNAŃ        2017       1     9  -5.8    0       88.6
#> 10  352160330 POZNAŃ        2017       1    10  -5      0       75.3
#> # … with 720 more rows, and 1 more variable: pressure <dbl>
```
…
